
{"photos":{"page":1,"pages":10,"perpage":100,"total":1000,"photo":[{"id":"49734059868","owner":"187725190@N08","secret":"19dc429df6","server":"65535","farm":66,"title":"Perspective \ud83d\udd3a . . . . . . . . . . . . . #StreetMobs #VisualMobs #bokehcity #symmetrylovers #streetframez #symmetryhunters #republic_of_symmetry #Bestcityposts #Citygrammers #streetsineurope #LightMobs #darkmobs #ClickCity #CityUnit #sym","ispublic":1,"isfriend":0,"isfamily":0},{"id":"49734060143","owner":"129371050@N04","secret":"1285340557","server":"65535","farm":66,"title":"\u062d\u0635\u0627\u0646 \u062c\u0645\u064a\u0644 pretty horse","ispublic":1,"isfriend":0,"isfamily":0},{"id":"49734061128","owner":"60269086@N05","secret":"52bab91c6b","server":"65535","farm":66,"title":"Peony","ispublic":1,"isfriend":0,"isfamily":0},{"id":"49734061473","owner":"8857798@N02","secret":"a554e228db","server":"65535","farm":66,"title":"","ispublic":1,"isfriend":0,"isfamily":0},{"id":"49734061648","owner":"135122045@N07","secret":"da56716b69","server":"65535","farm":66,"title":"K3__7938.jpg","ispublic":1,"isfriend":0,"isfamily":0},{"id":"49734062573","owner":"24551000@N08","secret":"27cc8961d6","server":"65535","farm":66,"title":"Morgengru\u00df mit dem Blick \u00fcber unseren Garten","ispublic":1,"isfriend":0,"isfamily":0},{"id":"49734063563","owner":"162553539@N03","secret":"2e26121676","server":"65535","farm":66,"title":"f16","ispublic":1,"isfriend":0,"isfamily":0},{"id":"49734063953","owner":"66855284@N03","secret":"197cc29892","server":"65535","farm":66,"title":"MMC Mid-Sun Power Plant, Substation 06","ispublic":1,"isfriend":0,"isfamily":0},{"id":"49734066138","owner":"137445735@N04","secret":"0f0039d308","server":"65535","farm":66,"title":"Perles\/pearls\/perlas","ispublic":1,"isfriend":0,"isfamily":0},{"id":"49734067388","owner":"182241539@N08","secret":"13bce92a4a","server":"65535","farm":66,"title":"\u062a\u06cc\u0634\u0631\u062a \u0648\u06cc\u0698\u0647 \u0628\u0631\u0627\u06cc \u0645\u0627\u0647 \u0645\u062d\u0631\u0645 \u0645\u0634\u06a9\u06cc \u0631\u0646\u06af \u0641\u0631\u06cc \u0633\u0627\u06cc\u0632 \u0641\u0642\u0637 59 \u0647\u0632\u0627\u0631 \u062a\u0648\u0645\u0627\u0646 \u067e\u0631\u062f\u0627\u062e\u062a \u062f\u0631\u0628 \u0645\u0646\u0632\u0644 \u0641\u0631\u0648\u0634\u06af\u0627\u0647 \u0644\u0628\u0627\u0633 \u0648\u0627\u06cc\u067e\u0631 https:\/\/ift.tt\/2whEWPQ","ispublic":1,"isfriend":0,"isfamily":0},{"id":"49734070783","owner":"152736785@N08","secret":"30ba903561","server":"65535","farm":66,"title":"The day the NBA stopped: Inside ESPN's historic broadcast of Nuggets-Mavericks game http:\/\/dlvr.it\/RT95YM","ispublic":1,"isfriend":0,"isfamily":0},{"id":"49734070873","owner":"12692615@N03","secret":"2f9c2c7b2e","server":"65535","farm":66,"title":"","ispublic":1,"isfriend":0,"isfamily":0},{"id":"49734071043","owner":"121595732@N02","secret":"62f9c066bf","server":"65535","farm":66,"title":"Playground closed!","ispublic":1,"isfriend":0,"isfamily":0},{"id":"49734071603","owner":"185288333@N07","secret":"0f738f61e0","server":"65535","farm":66,"title":"N-2020-04-04-2240_f","ispublic":1,"isfriend":0,"isfamily":0},{"id":"49734072473","owner":"153156052@N05","secret":"20f179b80b","server":"65535","farm":66,"title":"IMG_20200404_094835_670","ispublic":1,"isfriend":0,"isfamily":0},{"id":"49734073113","owner":"186783656@N05","secret":"c2b5bd9681","server":"65535","farm":66,"title":"Untitled","ispublic":1,"isfriend":0,"isfamily":0},{"id":"49734073778","owner":"94139720@N04","secret":"eccbdfb37f","server":"65535","farm":66,"title":"L1080355.jpg","ispublic":1,"isfriend":0,"isfamily":0},{"id":"49734074888","owner":"9673117@N03","secret":"6cab0d24a8","server":"65535","farm":66,"title":"Screenshot_20200325-144508_Facebook","ispublic":1,"isfriend":0,"isfamily":0},{"id":"49734075378","owner":"72775281@N06","secret":"75dd07ab0e","server":"65535","farm":66,"title":"Think I may like Powerhaul...","ispublic":1,"isfriend":0,"isfamily":0},{"id":"49734075838","owner":"94953034@N07","secret":"b291191028","server":"65535","farm":66,"title":"DSC00156","ispublic":1,"isfriend":0,"isfamily":0},{"id":"49734076363","owner":"38817438@N00","secret":"61351f8ac4","server":"65535","farm":66,"title":"Pug with cherry blossom","ispublic":1,"isfriend":0,"isfamily":0},{"id":"49734076518","owner":"187743262@N05","secret":"212e056e83","server":"65535","farm":66,"title":"Kevin is determining which Google Display Ads format to use, and choosing between efficiency and control. Match the ad he\u2019s creating to the appropriate ad format option. \u30c5","ispublic":1,"isfriend":0,"isfamily":0},{"id":"49734077063","owner":"57170930@N04","secret":"20609fb32a","server":"65535","farm":66,"title":"","ispublic":1,"isfriend":0,"isfamily":0},{"id":"49734078273","owner":"182090366@N03","secret":"18ce47de86","server":"65535","farm":66,"title":"Playing the floor piano","ispublic":1,"isfriend":0,"isfamily":0},{"id":"49734078323","owner":"153754490@N03","secret":"de5ccd38ae","server":"65535","farm":66,"title":"Stock Ente\/Duck","ispublic":1,"isfriend":0,"isfamily":0},{"id":"49734078353","owner":"187757651@N02","secret":"de9653c007","server":"65535","farm":66,"title":"Deafsarmistha","ispublic":1,"isfriend":0,"isfamily":0},{"id":"49734078763","owner":"151327008@N03","secret":"acd24f2a65","server":"65535","farm":66,"title":"At Asahi park in Cita City (7)","ispublic":1,"isfriend":0,"isfamily":0},{"id":"49734079088","owner":"42248862@N08","secret":"9e6b76060a","server":"65535","farm":66,"title":"2020-04-03 10-55-06","ispublic":1,"isfriend":0,"isfamily":0},{"id":"49734080053","owner":"149653936@N03","secret":"46a126335b","server":"65535","farm":66,"title":"Black-hooded Oriole (\u0995\u09be\u09b2\u09cb -\u09ae\u09be\u09a5\u09be \u09ac\u09c7\u09a8\u09c7 \u09ac\u0989)","ispublic":1,"isfriend":0,"isfamily":0},{"id":"49734080223","owner":"186151535@N02","secret":"c9366f92a9","server":"65535","farm":66,"title":"How to Enable Safe Mode on Apple iPhone 4s","ispublic":1,"isfriend":0,"isfamily":0},{"id":"49734080328","owner":"52486375@N03","secret":"125dc75136","server":"65535","farm":66,"title":"Perce-neige","ispublic":1,"isfriend":0,"isfamily":0},{"id":"49734081028","owner":"187769208@N06","secret":"c43df775da","server":"65535","farm":66,"title":"Die besten Rindfleischspitzen aller Zeiten -  BEST-EVER-BEEF-TIPPS (RAVE REVIEWS...","ispublic":1,"isfriend":0,"isfamily":0},{"id":"49734081493","owner":"126559701@N02","secret":"8d06486ffe","server":"65535","farm":66,"title":"Starling,garden","ispublic":1,"isfriend":0,"isfamily":0},{"id":"49734081753","owner":"154299146@N08","secret":"a79396dfe8","server":"65535","farm":66,"title":"Ingoldmells Planet Fun Amusements Horse Carousel Kiddie Ride","ispublic":1,"isfriend":0,"isfamily":0},{"id":"49734081878","owner":"20709518@N00","secret":"7088a79f3b","server":"65535","farm":66,"title":"Vision 1 by RAD","ispublic":1,"isfriend":0,"isfamily":0},{"id":"49734082083","owner":"40129895@N03","secret":"fb6fc87feb","server":"65535","farm":66,"title":"92132803_520038922279122_1453995495125942272_n.jpg","ispublic":1,"isfriend":0,"isfamily":0},{"id":"49734082163","owner":"150735285@N08","secret":"4f56bc7451","server":"65535","farm":66,"title":"2020-04-04_02-43-55","ispublic":1,"isfriend":0,"isfamily":0},{"id":"49734605596","owner":"92475540@N00","secret":"4d7c6befb3","server":"65535","farm":66,"title":"0607 Waterfalls_0607_203246_EM1-II_09689.jpg","ispublic":1,"isfriend":0,"isfamily":0},{"id":"49734606236","owner":"157462124@N03","secret":"2b1ea5e995","server":"65535","farm":66,"title":"\u3044\u3061\u3054\u3055\u3093 030","ispublic":1,"isfriend":0,"isfamily":0},{"id":"49734606396","owner":"95129473@N08","secret":"c559b16785","server":"65535","farm":66,"title":"The way things used to be.","ispublic":1,"isfriend":0,"isfamily":0},{"id":"49734608301","owner":"49139348@N00","secret":"abda840d66","server":"65535","farm":66,"title":"","ispublic":1,"isfriend":0,"isfamily":0},{"id":"49734609331","owner":"61814646@N00","secret":"e7eafaf7e3","server":"65535","farm":66,"title":"DB 261 038-0, Misburg","ispublic":1,"isfriend":0,"isfamily":0},{"id":"49734609361","owner":"12680321@N02","secret":"a545196dbd","server":"65535","farm":66,"title":"In process.","ispublic":1,"isfriend":0,"isfamily":0},{"id":"49734609586","owner":"185504660@N02","secret":"332f550dd5","server":"65535","farm":66,"title":"Untitled","ispublic":1,"isfriend":0,"isfamily":0},{"id":"49734610501","owner":"185888442@N03","secret":"7355660466","server":"65535","farm":66,"title":"Easy vegetarian meals","ispublic":1,"isfriend":0,"isfamily":0},{"id":"49734611126","owner":"85567209@N04","secret":"c6272b0a2f","server":"65535","farm":66,"title":"All is left to do is drive fast","ispublic":1,"isfriend":0,"isfamily":0},{"id":"49734611986","owner":"160410321@N07","secret":"742dac12f4","server":"65535","farm":66,"title":"received_596702530920526","ispublic":1,"isfriend":0,"isfamily":0},{"id":"49734613951","owner":"20798543@N07","secret":"b595ee7f12","server":"65535","farm":66,"title":"Toasted corn Doritos","ispublic":1,"isfriend":0,"isfamily":0},{"id":"49734614206","owner":"100872854@N04","secret":"40fccd1bb2","server":"65535","farm":66,"title":"","ispublic":1,"isfriend":0,"isfamily":0},{"id":"49734615121","owner":"161145181@N05","secret":"a8a0375c3c","server":"65535","farm":66,"title":"","ispublic":1,"isfriend":0,"isfamily":0},{"id":"49734615581","owner":"51647789@N05","secret":"7fce7fe54b","server":"65535","farm":66,"title":"","ispublic":1,"isfriend":0,"isfamily":0},{"id":"49734616586","owner":"97102756@N07","secret":"cfe3503d69","server":"65535","farm":66,"title":"N-2020-04-04-2240_f","ispublic":1,"isfriend":0,"isfamily":0},{"id":"49734616621","owner":"34238008@N02","secret":"2995df4451","server":"65535","farm":66,"title":"Sharp-shinned Hawk (Accipiter striatus)","ispublic":1,"isfriend":0,"isfamily":0},{"id":"49734617696","owner":"30034795@N05","secret":"e2afaf8326","server":"65535","farm":66,"title":"2020s_Isaac's pictures #1_0013","ispublic":1,"isfriend":0,"isfamily":0},{"id":"49734618251","owner":"187186043@N07","secret":"2e8aae4abf","server":"65535","farm":66,"title":"\u0645\u0633\u0644\u0633\u0644 The Bold Type \u0627\u0644\u0645\u0648\u0633\u0645 4 \u0627\u0644\u062d\u0644\u0642\u0629 8 \u0627\u0648\u0646 \u0644\u0627\u064a\u0646","ispublic":1,"isfriend":0,"isfamily":0},{"id":"49734618301","owner":"12639178@N07","secret":"dff4c8e72e","server":"65535","farm":66,"title":"T\u00fcrkentaube (Streptopelia decaocto) (2)","ispublic":1,"isfriend":0,"isfamily":0},{"id":"49734618406","owner":"43574048@N00","secret":"2812afc21c","server":"65535","farm":66,"title":"IMG_20190908_135525","ispublic":1,"isfriend":0,"isfamily":0},{"id":"49734619441","owner":"187660196@N04","secret":"ecf44aae6c","server":"65535","farm":66,"title":"DSC_1678","ispublic":1,"isfriend":0,"isfamily":0},{"id":"49734619736","owner":"23639146@N06","secret":"d3b5c7707a","server":"65535","farm":66,"title":"Spring 2020","ispublic":1,"isfriend":0,"isfamily":0},{"id":"49734620316","owner":"187760930@N03","secret":"bff0e1d13c","server":"65535","farm":66,"title":"","ispublic":1,"isfriend":0,"isfamily":0},{"id":"49734622666","owner":"183613536@N03","secret":"b0f780c73f","server":"65535","farm":66,"title":"5e888ec673706","ispublic":1,"isfriend":0,"isfamily":0},{"id":"49734623091","owner":"38937019@N00","secret":"84854ff0e6","server":"65535","farm":66,"title":"walking","ispublic":1,"isfriend":0,"isfamily":0},{"id":"49734624066","owner":"187397829@N06","secret":"dfc8586572","server":"65535","farm":66,"title":"","ispublic":1,"isfriend":0,"isfamily":0},{"id":"49734624641","owner":"154284055@N07","secret":"f3b4f3127d","server":"65535","farm":66,"title":"Encuentra el auto. No digas d\u00f3nde est\u00e1 #wp juegosmental.es www.juegosmentales.online","ispublic":1,"isfriend":0,"isfamily":0},{"id":"49734625106","owner":"187113622@N05","secret":"edc484982c","server":"65535","farm":66,"title":"RR Media  E: rrphotomedia@gmail.com  T: +44.7931.142.387","ispublic":1,"isfriend":0,"isfamily":0},{"id":"49734625286","owner":"183668750@N04","secret":"01141ee70e","server":"65535","farm":66,"title":"Trolly View in SF","ispublic":1,"isfriend":0,"isfamily":0},{"id":"49734625966","owner":"165579059@N02","secret":"66ff6ffbee","server":"65535","farm":66,"title":"Upper Seletar Reservoir Park Singapore 4 April 2020. Canon 60D\/Canon EF-S 24mm f2.8 STM.  #UpperSeletarReservoirPark #SeletarReservoir #Reservoir #Water #Sky #Clouds #Waves","ispublic":1,"isfriend":0,"isfamily":0},{"id":"49734626281","owner":"186130485@N06","secret":"5ddf7ef178","server":"65535","farm":66,"title":"2020-04-04_08-43-34","ispublic":1,"isfriend":0,"isfamily":0},{"id":"49734626921","owner":"187758899@N02","secret":"93478164f4","server":"65535","farm":66,"title":"","ispublic":1,"isfriend":0,"isfamily":0},{"id":"49734929902","owner":"185804691@N02","secret":"345d08a6d5","server":"65535","farm":66,"title":"The 2 Fatal Mistakes Online Business Owners Make With Customer Service","ispublic":1,"isfriend":0,"isfamily":0},{"id":"49734930182","owner":"25348090@N03","secret":"4dec745d93","server":"65535","farm":66,"title":"Ultraviolet treatment for our gloves ahead of our next outing into the contagion zone","ispublic":1,"isfriend":0,"isfamily":0},{"id":"49734931557","owner":"68562669@N06","secret":"b8e35f65dd","server":"65535","farm":66,"title":"tree in water_1.psd","ispublic":1,"isfriend":0,"isfamily":0},{"id":"49734931902","owner":"78892155@N04","secret":"e6edec0c4c","server":"65535","farm":66,"title":"","ispublic":1,"isfriend":0,"isfamily":0},{"id":"49734932237","owner":"182221314@N08","secret":"a08d5aa21b","server":"65535","farm":66,"title":"DSCF9570","ispublic":1,"isfriend":0,"isfamily":0},{"id":"49734932947","owner":"160938372@N02","secret":"3b62364dc5","server":"65535","farm":66,"title":"50009 & 50036 Glasgow Central, 1Z46, Hoover Dambuster Tour, 14 May 1988.","ispublic":1,"isfriend":0,"isfamily":0},{"id":"49734933487","owner":"187400390@N03","secret":"2b8abd7f03","server":"65535","farm":66,"title":"Artificial Pitch Resurfacing in Lincolnshire https:\/\/t.co\/Up4CPt4geJ","ispublic":1,"isfriend":0,"isfamily":0},{"id":"49734933827","owner":"163429995@N08","secret":"a26fe305f0","server":"65535","farm":66,"title":"Mookerheide (NL) | April 2020","ispublic":1,"isfriend":0,"isfamily":0},{"id":"49734934317","owner":"186742721@N04","secret":"c510b783b0","server":"65535","farm":66,"title":"48408302_1825840734205418_2115770644573454336_n","ispublic":1,"isfriend":0,"isfamily":0},{"id":"49734935037","owner":"183390885@N03","secret":"524bc8fc88","server":"65535","farm":66,"title":"","ispublic":1,"isfriend":0,"isfamily":0},{"id":"49734935442","owner":"187783663@N06","secret":"6386a850cc","server":"65535","farm":66,"title":"steam_i8QI7YH723","ispublic":1,"isfriend":0,"isfamily":0},{"id":"49734936682","owner":"12116772@N00","secret":"3ce04af830","server":"65535","farm":66,"title":"The pigeons are taking back their space. #NYC #Wonderment https:\/\/t.co\/kGovDQz1Sn","ispublic":1,"isfriend":0,"isfamily":0},{"id":"49734936992","owner":"186616841@N08","secret":"a2c2e6e49a","server":"65535","farm":66,"title":"Secure Yourself Now","ispublic":1,"isfriend":0,"isfamily":0},{"id":"49734937277","owner":"184802130@N04","secret":"2ff1f26075","server":"65535","farm":66,"title":"Thu\u1ed1c Zyrtec (cetirizine) \u2013 Vi\u00eam m\u0169i d\u1ecb \u1ee9ng v\u00e0 nh\u1eefng l\u01b0u \u00fd","ispublic":1,"isfriend":0,"isfamily":0},{"id":"49734937782","owner":"187347466@N03","secret":"b40a512ae2","server":"65535","farm":66,"title":"Wavenetvocalizer","ispublic":1,"isfriend":0,"isfamily":0},{"id":"49734938397","owner":"75931071@N03","secret":"656c3c411d","server":"65535","farm":66,"title":"Near Ashendon, Buckinghamshire.","ispublic":1,"isfriend":0,"isfamily":0},{"id":"49734938847","owner":"82062976@N05","secret":"1d1759ed67","server":"65535","farm":66,"title":"P3150003","ispublic":1,"isfriend":0,"isfamily":0},{"id":"49734939682","owner":"186835905@N03","secret":"c9e3debb66","server":"65535","farm":66,"title":"2020_0404_15140400-01","ispublic":1,"isfriend":0,"isfamily":0},{"id":"49734941127","owner":"186838929@N08","secret":"3bc53e91a5","server":"65535","farm":66,"title":"Untitled","ispublic":1,"isfriend":0,"isfamily":0},{"id":"49734941807","owner":"100410892@N03","secret":"dc045bf1fc","server":"65535","farm":66,"title":"Iglesia de Santa Maria del Naranco .)1910\/6086","ispublic":1,"isfriend":0,"isfamily":0},{"id":"49734942227","owner":"81029840@N02","secret":"07c4fecc22","server":"65535","farm":66,"title":"Untitled","ispublic":1,"isfriend":0,"isfamily":0},{"id":"49734942317","owner":"161846875@N07","secret":"f11cc8be58","server":"65535","farm":66,"title":"rot","ispublic":1,"isfriend":0,"isfamily":0},{"id":"49734943322","owner":"60497128@N00","secret":"e797b11d3a","server":"65535","farm":66,"title":"A disgusting human being","ispublic":1,"isfriend":0,"isfamily":0},{"id":"49734943672","owner":"8503931@N07","secret":"90e8dbe2c5","server":"65535","farm":66,"title":"85A_7369.jpg","ispublic":1,"isfriend":0,"isfamily":0},{"id":"49734944367","owner":"185880742@N05","secret":"1c17969b99","server":"65535","farm":66,"title":"","ispublic":1,"isfriend":0,"isfamily":0},{"id":"49734945382","owner":"40662321@N08","secret":"3cf31e6f84","server":"65535","farm":66,"title":"untitled-6531","ispublic":1,"isfriend":0,"isfamily":0},{"id":"49734945427","owner":"73532338@N04","secret":"4b1e504458","server":"65535","farm":66,"title":"Parallel Universe f3.5, 1\/80, 2000, 50mm Not photoshopped. See how I did it here: http:\/\/codedincantation.com\/blog\/2020\/02\/24\/photography-starting-february-24-2020\/","ispublic":1,"isfriend":0,"isfamily":0},{"id":"49734945842","owner":"9024930@N06","secret":"5f1a8fb6f3","server":"65535","farm":66,"title":"La vie de Bordeaux revisit\u00e9 par les artistes. Vrai \/ Faux ? Laissons nous r\u00eaver ... Toutes les photos sur le blog : https:\/\/ift.tt\/349jI33 Improvidence Bordeaux Caf\u00e9 Th\u00e9\u00e2tre","ispublic":1,"isfriend":0,"isfamily":0},{"id":"49734946332","owner":"117309723@N02","secret":"80331da63b","server":"65535","farm":66,"title":"Withdrawn electrics.","ispublic":1,"isfriend":0,"isfamily":0},{"id":"49734947142","owner":"79964221@N03","secret":"dcab36468c","server":"65535","farm":66,"title":"Wien leergefegt (Corona)","ispublic":1,"isfriend":0,"isfamily":0},{"id":"49734949587","owner":"187691065@N08","secret":"2b2a991e69","server":"65535","farm":66,"title":"First lambs 2020","ispublic":1,"isfriend":0,"isfamily":0}]},"stat":"ok"}
